BRISC-V_single_cycle_base/src/control_unit.vcd
$date
      Thu Mar 23 17:27:46 2023

$end
$version
      Veriwell 2.8.7
$end
$timescale
      1s
$end


$scope module tb_control_unit $end
$var reg       1 !    clk  $end
$var reg       1 "    reset  $end
$var reg       1 #    report  $end
$var reg       7 $    opcode [6:0] $end
$var wire      1 %    branch_op  $end
$var wire      1 &    memRead  $end
$var wire      1 '    memtoReg  $end
$var wire      3 (    ALUOp [2:0] $end
$var wire      1 )    memWrite  $end
$var wire      2 *    next_PC_sel [1:0] $end
$var wire      2 +    operand_A_sel [1:0] $end
$var wire      1 ,    operand_B_sel  $end
$var wire      2 -    extend_sel [1:0] $end
$var wire      1 .    regWrite  $end

$scope module CU $end
$var wire      1 /    report  $end
$var wire      1 0    regWrite  $end
$var wire      2 1    extend_sel [1:0] $end
$var wire      1 2    operand_B_sel  $end
$var wire      2 3    operand_A_sel [1:0] $end
$var wire      2 4    next_PC_sel [1:0] $end
$var wire      1 5    memWrite  $end
$var wire      3 6    ALUOp [2:0] $end
$var wire      1 7    memtoReg  $end
$var wire      1 8    memRead  $end
$var wire      1 9    branch_op  $end
$var wire      7 :    opcode [6:0] $end
$var wire      1 ;    reset  $end
$var wire      1 <    clock  $end
$var reg      32 =    cycles [31:0] $end
$upscope $end

$upscope $end

$enddefinitions      $end
#0
$dumpvars
bx =
0<
1;
b0 :
09
08
07
b0 6
05
b0 4
b0 3
02
b0 1
00
1/
0.
b0 -
0,
b0 +
b0 *
0)
b0 (
0'
0&
0%
b0 $
1#
1"
0!
$end
#1
1!
1<
b0 =
#2
0!
0<
#3
1!
1<
#4
0!
0<
#5
1!
1<
#6
0!
0<
#7
1!
1<
#8
0!
0<
#9
1!
1<
#10
0"
0!
0;
0<
#11
1!
1<
b110011 $
b1 =
b110011 :
10
1.
#12
0!
0<
#13
1!
1<
b1100011 $
b10 =
b1100011 :
b1 4
b1 *
b10 6
b10 (
19
1%
00
0.
#14
0!
0<
#15
1!
1<
b11 $
b11 =
b11 :
b0 4
b0 *
12
1,
b100 6
b100 (
17
1'
18
1&
09
0%
10
1.
#16
0!
0<
#17
1!
1<
b100011 $
b100 =
b100011 :
b1 1
b1 -
b101 6
b101 (
07
0'
08
0&
15
1)
00
0.
#18
0!
0<
#19
1!
1<
b1101111 $
b101 =
b1101111 :
b10 4
b10 *
b0 1
b0 -
02
0,
b10 3
b10 +
b11 6
b11 (
05
0)
10
1.
#20
0!
0<
#21
1!
1<
b11011 $
b110 =
b11011 :
b0 4
b0 *
b0 3
b0 +
b0 6
b0 (
00
0.
#22
0!
0<
#23
1!
1<
b111 =
#24
0!
0<
#25
1!
1<
b1000 =
#26
0!
0<
#27
1!
1<
b1001 =
#28
0!
0<
#29
1!
1<
b1010 =
#30
0!
0<
#31
1!
1<
b1011 =
#32
0!
0<
#33
1!
1<
b1100 =
#34
0!
0<
#35
1!
1<
b1101 =
#36
0!
0<
#37
1!
1<
b1110 =
#38
0!
0<
#39
1!
1<
b1111 =
#40
0!
0<
#41
1!
1<
b10000 =
#42
0!
0<
#43
1!
1<
b10001 =
#44
0!
0<
#45
1!
1<
b10010 =
#46
0!
0<
#47
1!
1<
b10011 =
#48
0!
0<
#49
1!
1<
b10100 =
#50
0!
0<
#51
1!
1<
b10101 =
#52
0!
0<
#53
1!
1<
b10110 =
#54
0!
0<
#55
1!
1<
b10111 =
#56
0!
0<
#57
1!
1<
b11000 =
#58
0!
0<
#59
1!
1<
b11001 =
#60
0!
0<
#61
1!
1<
b11010 =
#62
0!
0<
#63
1!
1<
b11011 =
#64
0!
0<
#65
1!
1<
b11100 =
#66
0!
0<
#67
1!
1<
b11101 =
#68
0!
0<
#69
1!
1<
b11110 =
#70
0!
0<
#71
1!
1<
b11111 =
#72
0!
0<
#73
1!
1<
b100000 =
#74
0!
0<
#75
1!
1<
b100001 =
#76
0!
0<
#77
1!
1<
b100010 =
#78
0!
0<
#79
1!
1<
b100011 =
#80
0!
0<
#81
1!
1<
b100100 =
#82
0!
0<
#83
1!
1<
b100101 =
#84
0!
0<
#85
1!
1<
b100110 =
#86
0!
0<
#87
1!
1<
b100111 =
#88
0!
0<
#89
1!
1<
b101000 =
#90
0!
0<
#91
1!
1<
b101001 =
#92
0!
0<
#93
1!
1<
b101010 =
#94
0!
0<
#95
1!
1<
b101011 =
#96
0!
0<
#97
1!
1<
b101100 =
#98
0!
0<
#99
1!
1<
b101101 =
#100
0!
0<
#101
1!
1<
b101110 =
#102
0!
0<
#103
1!
1<
b101111 =
#104
0!
0<
#105
1!
1<
b110000 =
#106
0!
0<
#107
1!
1<
b110001 =
#108
0!
0<
#109
1!
1<
b110010 =
#110
0!
0<
#111
1!
1<
b110011 =
#112
0!
0<
#113
1!
1<
b110100 =
#114
0!
0<
#115
1!
1<
b110101 =
#116
0!
0<
#117
1!
1<
b110110 =
#118
0!
0<
#119
1!
1<
b110111 =
#120
0!
0<
#121
1!
1<
b111000 =
#122
0!
0<
#123
1!
1<
b111001 =
#124
0!
0<
#125
1!
1<
b111010 =
#126
0!
0<
#127
1!
1<
b111011 =
#128
0!
0<
#129
1!
1<
b111100 =
#130
0!
0<
#131
1!
1<
b111101 =
#132
0!
0<
#133
1!
1<
b111110 =
#134
0!
0<
#135
1!
1<
b111111 =
#136
0!
0<
#137
1!
1<
b1000000 =
#138
0!
0<
#139
1!
1<
b1000001 =
#140
0!
0<
#141
1!
1<
b1000010 =
#142
0!
0<
#143
1!
1<
b1000011 =
#144
0!
0<
#145
1!
1<
b1000100 =
#146
0!
0<
#147
1!
1<
b1000101 =
#148
0!
0<
#149
1!
1<
b1000110 =
#150
0!
0<
#151
1!
1<
b1000111 =
#152
0!
0<
#153
1!
1<
b1001000 =
#154
0!
0<
#155
1!
1<
b1001001 =
#156
0!
0<
#157
1!
1<
b1001010 =
#158
0!
0<
#159
1!
1<
b1001011 =
#160
0!
0<
#161
1!
1<
b1001100 =
#162
0!
0<
#163
1!
1<
b1001101 =
#164
0!
0<
#165
1!
1<
b1001110 =
#166
0!
0<
#167
1!
1<
b1001111 =
#168
0!
0<
#169
1!
1<
b1010000 =
#170
0!
0<
#171
1!
1<
b1010001 =
#172
0!
0<
#173
1!
1<
b1010010 =
#174
0!
0<
#175
1!
1<
b1010011 =
#176
0!
0<
#177
1!
1<
b1010100 =
#178
0!
0<
#179
1!
1<
b1010101 =
#180
0!
0<
#181
1!
1<
b1010110 =
#182
0!
0<
#183
1!
1<
b1010111 =
#184
0!
0<
#185
1!
1<
b1011000 =
#186
0!
0<
#187
1!
1<
b1011001 =
#188
0!
0<
#189
1!
1<
b1011010 =
#190
0!
0<
#191
1!
1<
b1011011 =
#192
0!
0<
#193
1!
1<
b1011100 =
#194
0!
0<
#195
1!
1<
b1011101 =
#196
0!
0<
#197
1!
1<
b1011110 =
#198
0!
0<
#199
1!
1<
b1011111 =
#200
0!
0<
#201
1!
1<
b1100000 =
#202
0!
0<
#203
1!
1<
b1100001 =
#204
0!
0<
#205
1!
1<
b1100010 =
#206
0!
0<
#207
1!
1<
b1100011 =
#208
0!
0<
#209
1!
1<
b1100100 =
#210
0!
0<
#211
1!
1<
b1100101 =
#212
0!
0<
#213
1!
1<
b1100110 =
#214
0!
0<
#215
1!
1<
b1100111 =
#216
0!
0<
#217
1!
1<
b1101000 =
#218
0!
0<
#219
1!
1<
b1101001 =
#220
0!
0<
#221
1!
1<
b1101010 =
