BRISC-V_single_cycle_base/src/execute.vcd
$date
      Thu Mar 23 15:59:13 2023

$end
$version
      Veriwell 2.8.7
$end
$timescale
      1s
$end


$scope module tb_execution_unit $end
$var reg       1 !    clk  $end
$var reg       1 "    reset  $end
$var reg       3 #    ALU_Operation [2:0] $end
$var reg       7 $    funct7 [6:0] $end
$var reg       3 %    funct3 [2:0] $end
$var reg      20 &    PC [19:0] $end
$var reg       2 '    ALU_ASrc [1:0] $end
$var reg       1 (    ALU_BSrc  $end
$var reg       1 )    branch_op  $end
$var reg      32 *    regRead_1 [31:0] $end
$var reg      32 +    regRead_2 [31:0] $end
$var reg      32 ,    extend [31:0] $end
$var wire      1 -    zero  $end
$var wire      1 .    branch  $end
$var wire     32 /    ALU_result [31:0] $end
$var wire     20 0    JALR_target [19:0] $end
$var reg       1 1    report  $end
$var wire      1 2    JALR_taget  $end

$scope module execute $end
$var wire      1 3    report  $end
$var wire     20 4    JALR_target [19:0] $end
$var wire     32 5    ALU_result [31:0] $end
$var wire      1 6    branch  $end
$var wire      1 7    zero  $end
$var wire     32 8    extend [31:0] $end
$var wire     32 9    regRead_2 [31:0] $end
$var wire     32 :    regRead_1 [31:0] $end
$var wire      1 ;    branch_op  $end
$var wire      1 <    ALU_BSrc  $end
$var wire      2 =    ALU_ASrc [1:0] $end
$var wire     20 >    PC [19:0] $end
$var wire      3 ?    funct3 [2:0] $end
$var wire      7 @    funct7 [6:0] $end
$var wire      3 A    ALU_Operation [2:0] $end
$var wire      1 B    reset  $end
$var wire      1 C    clock  $end
$var wire      6 D    ALU_Control [5:0] $end
$var wire     32 E    operand_A [31:0] $end
$var wire     32 F    operand_B [31:0] $end
$var wire      1 G    ALU_branch  $end
$var reg      32 H    cycles [31:0] $end

$scope module EU $end
$var wire     32 I    ALU_result [31:0] $end
$var wire      1 J    branch  $end
$var wire      1 K    zero  $end
$var wire     32 L    operand_B [31:0] $end
$var wire     32 M    operand_A [31:0] $end
$var wire      6 N    ALU_Control [5:0] $end
$var wire     32 O    signed_operand_A [31:0] $end
$var wire     32 P    signed_operand_B [31:0] $end
$var wire      5 Q    shamt [4:0] $end
$var wire     64 R    arithmetic_right_shift_double [63:0] $end
$var wire     32 S    arithmetic_right_shift [31:0] $end
$var wire     32 T    signed_less_than [31:0] $end
$var wire     32 U    signed_greater_than_equal [31:0] $end
$upscope $end

$upscope $end

$upscope $end

$enddefinitions      $end
#0
$dumpvars
b0x U
b0x T
bx S
bx R
bx Q
bx P
bx O
b0 N
bx M
bx L
xK
0J
bx I
bx H
0G
bx F
bx E
b0 D
0C
1B
b0 A
b0 @
b0 ?
bx >
bx =
x<
0;
b0 :
b0 9
bx 8
x7
06
bx 5
bx0 4
13
02
11
bz 0
bx /
0.
x-
bx ,
b0 +
b0 *
0)
x(
bx '
bx &
b0 %
b0 $
b0 #
1"
0!
$end
#1
1!
1C
b0 H
#2
0!
0C
#3
1!
1C
#4
0!
0C
#5
1!
1C
#6
0!
0C
#7
1!
1C
#8
0!
0C
#9
1!
1C
#10
0"
0!
0B
0C
#11
1!
1C
b101 %
b101 *
b111 +
b1 H
b101 N
b101 D
b101 ?
b101 :
b111 9
#12
0!
0C
#13
1!
1C
b0 %
b100000 $
b10 H
b0 N
b0 D
b0 ?
b1000 N
b1000 D
b100000 @
#14
0!
0C
#15
1!
1C
b1 #
b0 $
b11 H
b0 N
b0 D
b1 A
b0 @
#16
0!
0C
#17
1!
1C
b100 H
#18
0!
0C
#19
1!
1C
b101 H
#20
0!
0C
#21
1!
1C
b110 H
#22
0!
0C
#23
1!
1C
b111 H
#24
0!
0C
#25
1!
1C
b1000 H
#26
0!
0C
#27
1!
1C
b1001 H
#28
0!
0C
#29
1!
1C
b1010 H
#30
0!
0C
#31
1!
1C
b1011 H
#32
0!
0C
#33
1!
1C
b1100 H
#34
0!
0C
#35
1!
1C
b1101 H
#36
0!
0C
#37
1!
1C
b1110 H
#38
0!
0C
#39
1!
1C
b1111 H
#40
0!
0C
#41
1!
1C
b10000 H
#42
0!
0C
#43
1!
1C
b10001 H
#44
0!
0C
#45
1!
1C
b10010 H
#46
0!
0C
#47
1!
1C
b10011 H
#48
0!
0C
#49
1!
1C
b10100 H
#50
0!
0C
#51
1!
1C
b10101 H
#52
0!
0C
#53
1!
1C
b10110 H
#54
0!
0C
#55
1!
1C
b10111 H
#56
0!
0C
#57
1!
1C
b11000 H
#58
0!
0C
#59
1!
1C
b11001 H
#60
0!
0C
#61
1!
1C
b11010 H
#62
0!
0C
#63
1!
1C
b11011 H
#64
0!
0C
#65
1!
1C
b11100 H
#66
0!
0C
#67
1!
1C
b11101 H
#68
0!
0C
#69
1!
1C
b11110 H
#70
0!
0C
#71
1!
1C
b11111 H
#72
0!
0C
#73
1!
1C
b100000 H
#74
0!
0C
#75
1!
1C
b100001 H
#76
0!
0C
#77
1!
1C
b100010 H
#78
0!
0C
#79
1!
1C
b100011 H
#80
0!
0C
#81
1!
1C
b100100 H
#82
0!
0C
#83
1!
1C
b100101 H
#84
0!
0C
#85
1!
1C
b100110 H
#86
0!
0C
#87
1!
1C
b100111 H
#88
0!
0C
#89
1!
1C
b101000 H
#90
0!
0C
#91
1!
1C
b101001 H
#92
0!
0C
#93
1!
1C
b101010 H
#94
0!
0C
#95
1!
1C
b101011 H
#96
0!
0C
#97
1!
1C
b101100 H
#98
0!
0C
#99
1!
1C
b101101 H
#100
0!
0C
#101
1!
1C
b101110 H
#102
0!
0C
#103
1!
1C
b101111 H
#104
0!
0C
#105
1!
1C
b110000 H
#106
0!
0C
#107
1!
1C
b110001 H
#108
0!
0C
#109
1!
1C
b110010 H
#110
0!
0C
#111
1!
1C
b110011 H
#112
0!
0C
#113
1!
1C
b110100 H
#114
0!
0C
#115
1!
1C
b110101 H
#116
0!
0C
#117
1!
1C
b110110 H
#118
0!
0C
#119
1!
1C
b110111 H
#120
0!
0C
#121
1!
1C
b111000 H
#122
0!
0C
#123
1!
1C
b111001 H
#124
0!
0C
#125
1!
1C
b111010 H
#126
0!
0C
#127
1!
1C
b111011 H
#128
0!
0C
#129
1!
1C
b111100 H
#130
0!
0C
#131
1!
1C
b111101 H
#132
0!
0C
#133
1!
1C
b111110 H
#134
0!
0C
#135
1!
1C
b111111 H
#136
0!
0C
#137
1!
1C
b1000000 H
#138
0!
0C
#139
1!
1C
b1000001 H
#140
0!
0C
#141
1!
1C
b1000010 H
#142
0!
0C
#143
1!
1C
b1000011 H
#144
0!
0C
#145
1!
1C
b1000100 H
#146
0!
0C
#147
1!
1C
b1000101 H
#148
0!
0C
#149
1!
1C
b1000110 H
#150
0!
0C
#151
1!
1C
b1000111 H
#152
0!
0C
#153
1!
1C
b1001000 H
#154
0!
0C
#155
1!
1C
b1001001 H
#156
0!
0C
#157
1!
1C
b1001010 H
#158
0!
0C
#159
1!
1C
b1001011 H
#160
0!
0C
#161
1!
1C
b1001100 H
#162
0!
0C
#163
1!
1C
b1001101 H
#164
0!
0C
#165
1!
1C
b1001110 H
#166
0!
0C
#167
1!
1C
b1001111 H
#168
0!
0C
#169
1!
1C
b1010000 H
#170
0!
0C
#171
1!
1C
b1010001 H
#172
0!
0C
#173
1!
1C
b1010010 H
#174
0!
0C
#175
1!
1C
b1010011 H
#176
0!
0C
#177
1!
1C
b1010100 H
#178
0!
0C
#179
1!
1C
b1010101 H
#180
0!
0C
#181
1!
1C
b1010110 H
#182
0!
0C
#183
1!
1C
b1010111 H
#184
0!
0C
#185
1!
1C
b1011000 H
#186
0!
0C
#187
1!
1C
b1011001 H
#188
0!
0C
#189
1!
1C
b1011010 H
#190
0!
0C
#191
1!
1C
b1011011 H
#192
0!
0C
#193
1!
1C
b1011100 H
#194
0!
0C
#195
1!
1C
b1011101 H
#196
0!
0C
#197
1!
1C
b1011110 H
#198
0!
0C
#199
1!
1C
b1011111 H
#200
0!
0C
#201
1!
1C
b1100000 H
#202
0!
0C
#203
1!
1C
b1100001 H
#204
0!
0C
#205
1!
1C
b1100010 H
#206
0!
0C
#207
1!
1C
b1100011 H
#208
0!
0C
#209
1!
1C
b1100100 H
#210
0!
0C
#211
1!
1C
b1100101 H
#212
0!
0C
#213
1!
1C
b1100110 H
#214
0!
0C
#215
1!
1C
b1100111 H
