BRISC-V_single_cycle_base/src/memory_unit.vcd
$date
      Thu Mar 23 16:33:59 2023

$end
$version
      Veriwell 2.8.7
$end
$timescale
      1s
$end


$scope module tb_memory_unit $end
$var reg       1 !    clk  $end
$var reg       1 "    reset  $end
$var reg       1 #    load  $end
$var reg       1 $    store  $end
$var reg       8 %    address [7:0] $end
$var reg      32 &    store_data [31:0] $end
$var reg       1 '    report  $end
$var wire     32 (    load_data [31:0] $end
$var wire      8 )    data_addr [7:0] $end
$var wire      1 *    valid  $end
$var wire      1 +    ready  $end

$scope module DM $end
$var wire      1 ,    ready  $end
$var wire      1 -    valid  $end
$var wire     32 .    load_data [31:0] $end
$var wire      8 /    data_addr [7:0] $end
$var wire      1 0    report  $end
$var wire     32 1    store_data [31:0] $end
$var wire      8 2    address [7:0] $end
$var wire      1 3    store  $end
$var wire      1 4    load  $end
$var wire      1 5    reset  $end
$var wire      1 6    clock  $end
$var reg      32 7    cycles [31:0] $end

$scope module d_mem_interface $end
$var wire      1 8    report  $end
$var wire     32 9    out_data [31:0] $end
$var wire      8 :    out_addr [7:0] $end
$var wire      1 ;    ready  $end
$var wire      1 <    valid  $end
$var wire     32 =    in_data [31:0] $end
$var wire      8 >    read_address [7:0] $end
$var wire      8 ?    write_address [7:0] $end
$var wire      1 @    write  $end
$var wire      1 A    read  $end
$var wire      1 B    reset  $end
$var wire      1 C    clock  $end
$var reg      32 D    cycles [31:0] $end

$scope module RAM $end
$var wire      1 E    report  $end
$var wire     32 F    writeData [31:0] $end
$var wire      8 G    writeAddress [7:0] $end
$var wire      1 H    writeEnable  $end
$var wire      8 I    readAddress [7:0] $end
$var wire      1 J    readEnable  $end
$var wire      1 K    reset  $end
$var wire      1 L    clock  $end
$var wire     32 M    readData [31:0] $end
$var reg      32 N    cycles [31:0] $end

$scope begin RAM_WRITE $end
$upscope $end

$upscope $end

$upscope $end

$upscope $end

$upscope $end

$enddefinitions      $end
#0
$dumpvars
bx N
b0 M
0L
1K
0J
b0 I
0H
b0 G
b0 F
1E
bx D
0C
1B
0A
0@
b0 ?
b0 >
b0 =
0<
1;
b0 :
b0 9
18
bx 7
06
15
04
03
b0 2
b0 1
10
b0 /
b0 .
0-
1,
1+
0*
b0 )
b0 (
1'
b0 &
b0 %
0$
0#
1"
0!
$end
#1
1!
1L
1C
16
b0 N
b0 D
b0 7
#2
0!
0L
0C
06
#3
1!
1L
1C
16
#4
0!
0L
0C
06
#5
1!
1L
1C
16
#6
0!
0L
0C
06
#7
1!
1L
1C
16
#8
0!
0L
0C
06
#9
1!
1L
1C
16
#10
0"
0!
0K
0B
05
0L
0C
06
#11
1!
1$
b100 %
b1001 &
1L
1C
16
1H
1@
13
b100 I
b100 >
b100 G
b100 ?
b100 2
b1001 F
b1001 =
b1001 1
0;
0,
0+
1<
1-
1*
b1 N
b1 D
b1 7
#12
0!
0L
0C
06
#13
1!
b1000 %
b101 &
1L
1C
16
b1000 I
b1000 >
b1000 G
b1000 ?
b1000 2
b101 F
b101 =
b101 1
b10 N
b10 D
b10 7
#14
0!
0L
0C
06
#15
1!
1#
0$
b0 &
1L
1C
16
1J
1A
14
0H
0@
03
b0 F
b0 =
b0 1
b1000 :
b1000 /
b1000 )
b101 M
b101 9
b101 .
b101 (
b11 N
b11 D
b11 7
#16
0!
0L
0C
06
#17
1!
1$
b1100 %
b1001 &
1L
1C
16
1H
1@
13
b1100 I
b1100 >
b1100 G
b1100 ?
b1100 2
b1001 F
b1001 =
b1001 1
b1001 M
b1001 9
b1001 .
b1001 (
b1100 :
b1100 /
b1100 )
b100 N
b100 D
b100 7
#18
0!
0L
0C
06
#19
1!
0$
b100 %
b0 &
1L
1C
16
0H
0@
03
b100 I
b100 >
b100 G
b100 ?
b100 2
b0 F
b0 =
b0 1
b100 :
b100 /
b100 )
b101 N
b101 D
b101 7
#20
0!
0L
0C
06
#21
1!
1L
1C
16
b110 N
b110 D
b110 7
#22
0!
0L
0C
06
#23
1!
1L
1C
16
b111 N
b111 D
b111 7
#24
0!
0L
0C
06
#25
1!
1L
1C
16
b1000 N
b1000 D
b1000 7
#26
0!
0L
0C
06
#27
1!
1L
1C
16
b1001 N
b1001 D
b1001 7
#28
0!
0L
0C
06
#29
1!
1L
1C
16
b1010 N
b1010 D
b1010 7
#30
0!
0L
0C
06
#31
1!
1L
1C
16
b1011 N
b1011 D
b1011 7
#32
0!
0L
0C
06
#33
1!
1L
1C
16
b1100 N
b1100 D
b1100 7
#34
0!
0L
0C
06
#35
1!
1L
1C
16
b1101 N
b1101 D
b1101 7
#36
0!
0L
0C
06
#37
1!
1L
1C
16
b1110 N
b1110 D
b1110 7
#38
0!
0L
0C
06
#39
1!
1L
1C
16
b1111 N
b1111 D
b1111 7
#40
0!
0L
0C
06
#41
1!
1L
1C
16
b10000 N
b10000 D
b10000 7
#42
0!
0L
0C
06
#43
1!
1L
1C
16
b10001 N
b10001 D
b10001 7
#44
0!
0L
0C
06
#45
1!
1L
1C
16
b10010 N
b10010 D
b10010 7
#46
0!
0L
0C
06
#47
1!
1L
1C
16
b10011 N
b10011 D
b10011 7
#48
0!
0L
0C
06
#49
1!
1L
1C
16
b10100 N
b10100 D
b10100 7
#50
0!
0L
0C
06
#51
1!
1L
1C
16
b10101 N
b10101 D
b10101 7
#52
0!
0L
0C
06
#53
1!
1L
1C
16
b10110 N
b10110 D
b10110 7
#54
0!
0L
0C
06
#55
1!
1L
1C
16
b10111 N
b10111 D
b10111 7
#56
0!
0L
0C
06
#57
1!
1L
1C
16
b11000 N
b11000 D
b11000 7
#58
0!
0L
0C
06
#59
1!
1L
1C
16
b11001 N
b11001 D
b11001 7
#60
0!
0L
0C
06
#61
1!
1L
1C
16
b11010 N
b11010 D
b11010 7
#62
0!
0L
0C
06
#63
1!
1L
1C
16
b11011 N
b11011 D
b11011 7
#64
0!
0L
0C
06
#65
1!
1L
1C
16
b11100 N
b11100 D
b11100 7
#66
0!
0L
0C
06
#67
1!
1L
1C
16
b11101 N
b11101 D
b11101 7
#68
0!
0L
0C
06
#69
1!
1L
1C
16
b11110 N
b11110 D
b11110 7
#70
0!
0L
0C
06
#71
1!
1L
1C
16
b11111 N
b11111 D
b11111 7
#72
0!
0L
0C
06
#73
1!
1L
1C
16
b100000 N
b100000 D
b100000 7
#74
0!
0L
0C
06
#75
1!
1L
1C
16
b100001 N
b100001 D
b100001 7
#76
0!
0L
0C
06
#77
1!
1L
1C
16
b100010 N
b100010 D
b100010 7
#78
0!
0L
0C
06
#79
1!
1L
1C
16
b100011 N
b100011 D
b100011 7
#80
0!
0L
0C
06
#81
1!
1L
1C
16
b100100 N
b100100 D
b100100 7
#82
0!
0L
0C
06
#83
1!
1L
1C
16
b100101 N
b100101 D
b100101 7
#84
0!
0L
0C
06
#85
1!
1L
1C
16
b100110 N
b100110 D
b100110 7
#86
0!
0L
0C
06
#87
1!
1L
1C
16
b100111 N
b100111 D
b100111 7
#88
0!
0L
0C
06
#89
1!
1L
1C
16
b101000 N
b101000 D
b101000 7
#90
0!
0L
0C
06
#91
1!
1L
1C
16
b101001 N
b101001 D
b101001 7
#92
0!
0L
0C
06
#93
1!
1L
1C
16
b101010 N
b101010 D
b101010 7
#94
0!
0L
0C
06
#95
1!
1L
1C
16
b101011 N
b101011 D
b101011 7
#96
0!
0L
0C
06
#97
1!
1L
1C
16
b101100 N
b101100 D
b101100 7
#98
0!
0L
0C
06
#99
1!
1L
1C
16
b101101 N
b101101 D
b101101 7
#100
0!
0L
0C
06
#101
1!
1L
1C
16
b101110 N
b101110 D
b101110 7
#102
0!
0L
0C
06
#103
1!
1L
1C
16
b101111 N
b101111 D
b101111 7
#104
0!
0L
0C
06
#105
1!
1L
1C
16
b110000 N
b110000 D
b110000 7
#106
0!
0L
0C
06
#107
1!
1L
1C
16
b110001 N
b110001 D
b110001 7
#108
0!
0L
0C
06
#109
1!
1L
1C
16
b110010 N
b110010 D
b110010 7
#110
0!
0L
0C
06
#111
1!
1L
1C
16
b110011 N
b110011 D
b110011 7
#112
0!
0L
0C
06
#113
1!
1L
1C
16
b110100 N
b110100 D
b110100 7
#114
0!
0L
0C
06
#115
1!
1L
1C
16
b110101 N
b110101 D
b110101 7
#116
0!
0L
0C
06
#117
1!
1L
1C
16
b110110 N
b110110 D
b110110 7
#118
0!
0L
0C
06
#119
1!
1L
1C
16
b110111 N
b110111 D
b110111 7
#120
0!
0L
0C
06
#121
1!
1L
1C
16
b111000 N
b111000 D
b111000 7
#122
0!
0L
0C
06
#123
1!
1L
1C
16
b111001 N
b111001 D
b111001 7
#124
0!
0L
0C
06
#125
1!
1L
1C
16
b111010 N
b111010 D
b111010 7
#126
0!
0L
0C
06
#127
1!
1L
1C
16
b111011 N
b111011 D
b111011 7
#128
0!
0L
0C
06
#129
1!
1L
1C
16
b111100 N
b111100 D
b111100 7
#130
0!
0L
0C
06
#131
1!
1L
1C
16
b111101 N
b111101 D
b111101 7
#132
0!
0L
0C
06
#133
1!
1L
1C
16
b111110 N
b111110 D
b111110 7
#134
0!
0L
0C
06
#135
1!
1L
1C
16
b111111 N
b111111 D
b111111 7
#136
0!
0L
0C
06
#137
1!
1L
1C
16
b1000000 N
b1000000 D
b1000000 7
#138
0!
0L
0C
06
#139
1!
1L
1C
16
b1000001 N
b1000001 D
b1000001 7
#140
0!
0L
0C
06
#141
1!
1L
1C
16
b1000010 N
b1000010 D
b1000010 7
#142
0!
0L
0C
06
#143
1!
1L
1C
16
b1000011 N
b1000011 D
b1000011 7
#144
0!
0L
0C
06
#145
1!
1L
1C
16
b1000100 N
b1000100 D
b1000100 7
#146
0!
0L
0C
06
#147
1!
1L
1C
16
b1000101 N
b1000101 D
b1000101 7
#148
0!
0L
0C
06
#149
1!
1L
1C
16
b1000110 N
b1000110 D
b1000110 7
#150
0!
0L
0C
06
#151
1!
1L
1C
16
b1000111 N
b1000111 D
b1000111 7
#152
0!
0L
0C
06
#153
1!
1L
1C
16
b1001000 N
b1001000 D
b1001000 7
#154
0!
0L
0C
06
#155
1!
1L
1C
16
b1001001 N
b1001001 D
b1001001 7
#156
0!
0L
0C
06
#157
1!
1L
1C
16
b1001010 N
b1001010 D
b1001010 7
#158
0!
0L
0C
06
#159
1!
1L
1C
16
b1001011 N
b1001011 D
b1001011 7
#160
0!
0L
0C
06
#161
1!
1L
1C
16
b1001100 N
b1001100 D
b1001100 7
#162
0!
0L
0C
06
#163
1!
1L
1C
16
b1001101 N
b1001101 D
b1001101 7
#164
0!
0L
0C
06
#165
1!
1L
1C
16
b1001110 N
b1001110 D
b1001110 7
#166
0!
0L
0C
06
#167
1!
1L
1C
16
b1001111 N
b1001111 D
b1001111 7
#168
0!
0L
0C
06
#169
1!
1L
1C
16
b1010000 N
b1010000 D
b1010000 7
#170
0!
0L
0C
06
#171
1!
1L
1C
16
b1010001 N
b1010001 D
b1010001 7
#172
0!
0L
0C
06
#173
1!
1L
1C
16
b1010010 N
b1010010 D
b1010010 7
#174
0!
0L
0C
06
#175
1!
1L
1C
16
b1010011 N
b1010011 D
b1010011 7
#176
0!
0L
0C
06
#177
1!
1L
1C
16
b1010100 N
b1010100 D
b1010100 7
#178
0!
0L
0C
06
#179
1!
1L
1C
16
b1010101 N
b1010101 D
b1010101 7
#180
0!
0L
0C
06
#181
1!
1L
1C
16
b1010110 N
b1010110 D
b1010110 7
#182
0!
0L
0C
06
#183
1!
1L
1C
16
b1010111 N
b1010111 D
b1010111 7
#184
0!
0L
0C
06
#185
1!
1L
1C
16
b1011000 N
b1011000 D
b1011000 7
#186
0!
0L
0C
06
#187
1!
1L
1C
16
b1011001 N
b1011001 D
b1011001 7
#188
0!
0L
0C
06
#189
1!
1L
1C
16
b1011010 N
b1011010 D
b1011010 7
#190
0!
0L
0C
06
#191
1!
1L
1C
16
b1011011 N
b1011011 D
b1011011 7
#192
0!
0L
0C
06
#193
1!
1L
1C
16
b1011100 N
b1011100 D
b1011100 7
#194
0!
0L
0C
06
#195
1!
1L
1C
16
b1011101 N
b1011101 D
b1011101 7
#196
0!
0L
0C
06
#197
1!
1L
1C
16
b1011110 N
b1011110 D
b1011110 7
#198
0!
0L
0C
06
#199
1!
1L
1C
16
b1011111 N
b1011111 D
b1011111 7
#200
0!
0L
0C
06
#201
1!
1L
1C
16
b1100000 N
b1100000 D
b1100000 7
#202
0!
0L
0C
06
#203
1!
1L
1C
16
b1100001 N
b1100001 D
b1100001 7
#204
0!
0L
0C
06
#205
1!
1L
1C
16
b1100010 N
b1100010 D
b1100010 7
#206
0!
0L
0C
06
#207
1!
1L
1C
16
b1100011 N
b1100011 D
b1100011 7
#208
0!
0L
0C
06
#209
1!
1L
1C
16
b1100100 N
b1100100 D
b1100100 7
#210
0!
0L
0C
06
#211
1!
1L
1C
16
b1100101 N
b1100101 D
b1100101 7
#212
0!
0L
0C
06
#213
1!
1L
1C
16
b1100110 N
b1100110 D
b1100110 7
#214
0!
0L
0C
06
#215
1!
1L
1C
16
b1100111 N
b1100111 D
b1100111 7
#216
0!
0L
0C
06
#217
1!
1L
1C
16
b1101000 N
b1101000 D
b1101000 7
#218
0!
0L
0C
06
#219
1!
1L
1C
16
b1101001 N
b1101001 D
b1101001 7
#220
0!
0L
0C
06
#221
1!
1L
1C
16
b1101010 N
b1101010 D
b1101010 7
#222
0!
0L
0C
06
#223
1!
1L
1C
16
b1101011 N
b1101011 D
b1101011 7
#224
0!
0L
0C
06
#225
1!
1L
1C
16
b1101100 N
b1101100 D
b1101100 7
#226
0!
0L
0C
06
#227
1!
1L
1C
16
b1101101 N
b1101101 D
b1101101 7
#228
0!
0L
0C
06
#229
1!
1L
1C
16
b1101110 N
b1101110 D
b1101110 7
#230
0!
0L
0C
06
#231
1!
1L
1C
16
b1101111 N
b1101111 D
b1101111 7
#232
0!
0L
0C
06
#233
1!
1L
1C
16
b1110000 N
b1110000 D
b1110000 7
#234
0!
0L
0C
06
#235
1!
1L
1C
16
b1110001 N
b1110001 D
b1110001 7
#236
0!
0L
0C
06
#237
1!
1L
1C
16
b1110010 N
b1110010 D
b1110010 7
#238
0!
0L
0C
06
#239
1!
1L
1C
16
b1110011 N
b1110011 D
b1110011 7
#240
0!
0L
0C
06
#241
1!
1L
1C
16
b1110100 N
b1110100 D
b1110100 7
#242
0!
0L
0C
06
#243
1!
1L
1C
16
b1110101 N
b1110101 D
b1110101 7
#244
0!
0L
0C
06
#245
1!
1L
1C
16
b1110110 N
b1110110 D
b1110110 7
#246
0!
0L
0C
06
#247
1!
1L
1C
16
b1110111 N
b1110111 D
b1110111 7
#248
0!
0L
0C
06
#249
1!
1L
1C
16
b1111000 N
b1111000 D
b1111000 7
#250
0!
0L
0C
06
#251
1!
1L
1C
16
b1111001 N
b1111001 D
b1111001 7
#252
0!
0L
0C
06
#253
1!
1L
1C
16
b1111010 N
b1111010 D
b1111010 7
#254
0!
0L
0C
06
#255
1!
1L
1C
16
b1111011 N
b1111011 D
b1111011 7
#256
0!
0L
0C
06
#257
1!
1L
1C
16
b1111100 N
b1111100 D
b1111100 7
#258
0!
0L
0C
06
#259
1!
1L
1C
16
b1111101 N
b1111101 D
b1111101 7
#260
0!
0L
0C
06
#261
1!
1L
1C
16
b1111110 N
b1111110 D
b1111110 7
#262
0!
0L
0C
06
#263
1!
1L
1C
16
b1111111 N
b1111111 D
b1111111 7
#264
0!
0L
0C
06
#265
1!
1L
1C
16
b10000000 N
b10000000 D
b10000000 7
#266
0!
0L
0C
06
#267
1!
1L
1C
16
b10000001 N
b10000001 D
b10000001 7
#268
0!
0L
0C
06
#269
1!
1L
1C
16
b10000010 N
b10000010 D
b10000010 7
#270
0!
0L
0C
06
#271
1!
1L
1C
16
b10000011 N
b10000011 D
b10000011 7
#272
0!
0L
0C
06
#273
1!
1L
1C
16
b10000100 N
b10000100 D
b10000100 7
#274
0!
0L
0C
06
#275
1!
1L
1C
16
b10000101 N
b10000101 D
b10000101 7
#276
0!
0L
0C
06
#277
1!
1L
1C
16
b10000110 N
b10000110 D
b10000110 7
#278
0!
0L
0C
06
#279
1!
1L
1C
16
b10000111 N
b10000111 D
b10000111 7
#280
0!
0L
0C
06
#281
1!
1L
1C
16
b10001000 N
b10001000 D
b10001000 7
#282
0!
0L
0C
06
#283
1!
1L
1C
16
b10001001 N
b10001001 D
b10001001 7
#284
0!
0L
0C
06
#285
1!
1L
1C
16
b10001010 N
b10001010 D
b10001010 7
#286
0!
0L
0C
06
#287
1!
1L
1C
16
b10001011 N
b10001011 D
b10001011 7
#288
0!
0L
0C
06
#289
1!
1L
1C
16
b10001100 N
b10001100 D
b10001100 7
#290
0!
0L
0C
06
#291
1!
1L
1C
16
b10001101 N
b10001101 D
b10001101 7
#292
0!
0L
0C
06
#293
1!
1L
1C
16
b10001110 N
b10001110 D
b10001110 7
#294
0!
0L
0C
06
#295
1!
1L
1C
16
b10001111 N
b10001111 D
b10001111 7
#296
0!
0L
0C
06
#297
1!
1L
1C
16
b10010000 N
b10010000 D
b10010000 7
#298
0!
0L
0C
06
#299
1!
1L
1C
16
b10010001 N
b10010001 D
b10010001 7
#300
0!
0L
0C
06
#301
1!
1L
1C
16
b10010010 N
b10010010 D
b10010010 7
#302
0!
0L
0C
06
#303
1!
1L
1C
16
b10010011 N
b10010011 D
b10010011 7
#304
0!
0L
0C
06
#305
1!
1L
1C
16
b10010100 N
b10010100 D
b10010100 7
#306
0!
0L
0C
06
#307
1!
1L
1C
16
b10010101 N
b10010101 D
b10010101 7
#308
0!
0L
0C
06
#309
1!
1L
1C
16
b10010110 N
b10010110 D
b10010110 7
#310
0!
0L
0C
06
#311
1!
1L
1C
16
b10010111 N
b10010111 D
b10010111 7
#312
0!
0L
0C
06
#313
1!
1L
1C
16
b10011000 N
b10011000 D
b10011000 7
#314
0!
0L
0C
06
#315
1!
1L
1C
16
b10011001 N
b10011001 D
b10011001 7
#316
0!
0L
0C
06
#317
1!
1L
1C
16
b10011010 N
b10011010 D
b10011010 7
#318
0!
0L
0C
06
#319
1!
1L
1C
16
b10011011 N
b10011011 D
b10011011 7
